---------- Date: 2014-09-16 10:03:08 ~ IP : 127.0.0.1 ----------
REQUEST URI : /nasz/
MOD DETAILS:
   modFile   : G:\xampp\htdocs\nasz\vqmod/xml/vqmod_profiler.xml
   id        : OpenCart profiler
   version   : 1.0
   vqmver    : 1
   author    : Alexander Toporkov (toporchillo@gmail.com)
SEARCH NOT FOUND (ABORTING MOD): $controller->$method($args);

----------------------------------------------------------------------


---------- Date: 2014-09-16 12:06:35 ~ IP : 127.0.0.1 ----------
REQUEST URI : /nasz/admin/index.php?route=catalog/product/update&amp;token=280b4fb1620553f86b301e5d8c573bcf&amp;product_id=389
MOD DETAILS:
   modFile   : G:\xampp\htdocs\nasz\vqmod/xml/Auto-SEO-keywords-URL.xml
   id        : Auto SEO Keywords
   version   : 1
   vqmver    : 
   author    : Creative Ground
SEARCH NOT FOUND (ABORTING MOD): name="keyword"

----------------------------------------------------------------------


---------- Date: 2014-09-16 12:08:16 ~ IP : 127.0.0.1 ----------
REQUEST URI : /nasz/admin/index.php?route=catalog/product/update&amp;token=280b4fb1620553f86b301e5d8c573bcf&amp;product_id=389
MOD DETAILS:
   modFile   : G:\xampp\htdocs\nasz\vqmod/xml/Auto-SEO-keywords-URL.xml
   id        : Auto SEO Keywords
   version   : 1
   vqmver    : 
   author    : Creative Ground
SEARCH NOT FOUND (ABORTING MOD): name="keyword"

----------------------------------------------------------------------


---------- Date: 2014-09-16 12:09:06 ~ IP : 127.0.0.1 ----------
REQUEST URI : /nasz/admin/index.php?route=catalog/product/update&amp;token=280b4fb1620553f86b301e5d8c573bcf&amp;product_id=389
MOD DETAILS:
   modFile   : G:\xampp\htdocs\nasz\vqmod/xml/Auto-SEO-keywords-URL.xml
   id        : Auto SEO Keywords
   version   : 1
   vqmver    : 
   author    : Creative Ground
SEARCH NOT FOUND (ABORTING MOD): name="keyword"

----------------------------------------------------------------------


---------- Date: 2014-09-16 12:28:43 ~ IP : 127.0.0.1 ----------
REQUEST URI : /nasz/admin/index.php?route=catalog/product/update&amp;token=280b4fb1620553f86b301e5d8c573bcf&amp;product_id=389
MOD DETAILS:
   modFile   : G:\xampp\htdocs\nasz\vqmod/xml/Auto-SEO-keywords-URL.xml
   id        : Auto SEO Keywords
   version   : 1
   vqmver    : 
   author    : Creative Ground
SEARCH NOT FOUND (ABORTING MOD): name="keyword"

----------------------------------------------------------------------


---------- Date: 2014-09-16 12:44:02 ~ IP : 127.0.0.1 ----------
REQUEST URI : /nasz/admin/index.php?route=catalog/product/update&amp;token=280b4fb1620553f86b301e5d8c573bcf&amp;product_id=389
MOD DETAILS:
   modFile   : G:\xampp\htdocs\nasz\vqmod/xml/Auto-SEO-keywords-URL.xml
   id        : Auto SEO Keywords
   version   : 1
   vqmver    : 
   author    : Creative Ground
SEARCH NOT FOUND (ABORTING MOD): name="keyword"

----------------------------------------------------------------------


---------- Date: 2014-09-16 12:44:54 ~ IP : 127.0.0.1 ----------
REQUEST URI : /nasz/admin/index.php?route=catalog/product/update&amp;token=280b4fb1620553f86b301e5d8c573bcf&amp;product_id=389
MOD DETAILS:
   modFile   : G:\xampp\htdocs\nasz\vqmod/xml/Auto-SEO-keywords-URL.xml
   id        : Auto SEO Keywords
   version   : 1
   vqmver    : 
   author    : Creative Ground
SEARCH NOT FOUND (ABORTING MOD): name="keyword"

----------------------------------------------------------------------


---------- Date: 2014-09-16 12:50:10 ~ IP : 127.0.0.1 ----------
REQUEST URI : /nasz/admin/index.php?route=catalog/product/update&amp;token=280b4fb1620553f86b301e5d8c573bcf&amp;product_id=389
MOD DETAILS:
   modFile   : G:\xampp\htdocs\nasz\vqmod/xml/Auto-SEO-keywords-URL.xml
   id        : Auto SEO Keywords
   version   : 1
   vqmver    : 
   author    : Creative Ground
SEARCH NOT FOUND (ABORTING MOD): name="keyword"

----------------------------------------------------------------------


---------- Date: 2014-09-16 12:51:06 ~ IP : 127.0.0.1 ----------
REQUEST URI : /nasz/admin/index.php?route=catalog/product/update&amp;token=280b4fb1620553f86b301e5d8c573bcf&amp;product_id=389
MOD DETAILS:
   modFile   : G:\xampp\htdocs\nasz\vqmod/xml/Auto-SEO-keywords-URL.xml
   id        : Auto SEO Keywords
   version   : 1
   vqmver    : 
   author    : Creative Ground
SEARCH NOT FOUND (ABORTING MOD): name="keyword"

----------------------------------------------------------------------


